^C:\USERS\ACER\SOURCE\REPOS\LAB6\LAB6.2\DEBUG\LAB6.2.OBJ
C:\USERS\ACER\SOURCE\REPOS\LAB6\DEBUG\LAB6.2.EXE
C:\USERS\ACER\SOURCE\REPOS\LAB6\LAB6.2\DEBUG\LAB6.2.ILK
C:\USERS\ACER\SOURCE\REPOS\LAB6\DEBUG\LAB6.2.PDB
